-------------------------------------------------------------------------------
Test set: com.sg.flops.service.FlopsServiceLayerImplTest
-------------------------------------------------------------------------------
Tests run: 15, Failures: 0, Errors: 0, Skipped: 0, Time elapsed: 0.014 sec
