com/sg/flops/dao/FlopsProductDaoFileImplTest.class
com/sg/flops/dao/FlopsTaxesDaoFileImplTest.class
com/sg/flops/service/FlopsServiceLayerImplTest.class
com/sg/flops/dao/FlopsOrderDaoFileImplTest.class
