1361,Benjamin "Freefall" Mills,Massachusetts,6.25,Dandelion Fluff,162.00,1773.00,2693.00,287226.00,436266.00,4521825.00,5245317.00,
1362,Savannah Whedon,Alaska,0.00,Marmite,207.00,4020.00,1027.00,832140.00,212589.00,0.00,1044729.00,
1363,Margaret Rogers,Oregon,0.00,Peanut Shells,295.00,1941.00,3558.00,572595.00,1049610.00,0.00,1622205.00,
1366,Moses Rutland,Iowa,6.00,Dandelion Fluff,138.00,1773.00,2693.00,244674.00,371634.00,3697848.00,4314156.00,
1367,Hunter Wilkinson,Iowa,6.00,Rose Petals,114.00,2055.00,1162.00,234270.00,132468.00,2200428.00,2567166.00,
1368,Zachariah Davis,New Mexico,5.13,Rose Petals,232.00,2055.00,1162.00,476760.00,269584.00,3828744.72,4575088.72,
1372,Amelia Allen,New Jersey,7.00,Dandelion Fluff,235.00,1773.00,2693.00,416655.00,632855.00,7346570.00,8396080.00,
1374,Byron Blackburn,Pennsylvania,6.00,Marmite,115.00,4020.00,1027.00,462300.00,118105.00,3482430.00,4062835.00,
1380,Margaret Rogers,Washington,6.50,Peanut Shells,229.00,1941.00,3558.00,444489.00,814782.00,8185261.50,9444532.50,
1381,Tsi Jai-Qu,Kentucky,6.00,Burlap,291.00,2808.00,2277.00,817128.00,662607.00,8878410.00,10358145.00,
