1408,Benjamin "Freefall" Mills,Arkansas,6.50,Dandelion Fluff,144.00,1773.00,2693.00,255312.00,387792.00,4180176.00,4823280.00,
1360,Wei Zhi-Hsu,Alaska,0.00,Molten Lava,271.00,4682.00,4311.00,1268822.00,1168281.00,0.00,2437103.00,
1364,Si Na-Zhui,New Hampshire,0.00,Peanut Shells,195.00,1941.00,3558.00,378495.00,693810.00,0.00,1072305.00,
1365,Augustus "Landlock" O'Brien,D.C.,5.75,Peanut Shells,123.00,1941.00,3558.00,238743.00,437634.00,3889167.75,4565544.75,
1369,Sai Hso-Qu,Illinois,6.25,Marmite,291.00,4020.00,1027.00,1169820.00,298857.00,9179231.25,10647908.25,
1370,Hunter Wilkinson,Minnesota,6.88,Marmite,228.00,4020.00,1027.00,916560.00,234156.00,7916926.08,9067642.08,
1371,Edwin Foster,Washington,6.50,Rose Petals,227.00,2055.00,1162.00,466485.00,263774.00,4746683.50,5476942.50,
1373,Alexander Nelson,South Dakota,4.00,Marmite,149.00,4020.00,1027.00,598980.00,153023.00,3008012.00,3760015.00,
1375,Sai Hso-Qu,Arizona,5.60,Molten Lava,201.00,4682.00,4311.00,941082.00,866511.00,10122520.80,11930113.80,
1376,Benjamin "Freefall" Mills,Nevada,6.85,Rose Petals,285.00,2055.00,1162.00,585675.00,331170.00,6280388.25,7197233.25,
1377,Ngu Lu-Xiao,Wisconsin,5.00,Molten Lava,184.00,4682.00,4311.00,861488.00,793224.00,8273560.00,9928272.00,
1378,Elias Cook,Pennsylvania,6.00,Peanut Shells,222.00,1941.00,3558.00,430902.00,789876.00,7324668.00,8545446.00,
1379,Si Na-Zhui,Mississippi,7.00,Rose Petals,204.00,2055.00,1162.00,419220.00,237048.00,4593876.00,5250144.00,
1382,Lu Tuo-Wei,Alaska,0.00,Molten Lava,219.00,4682.00,4311.00,1025358.00,944109.00,0.00,1969467.00,
1383,Harris Moore,Rhode Island,7.00,Dandelion Fluff,196.00,1773.00,2693.00,347508.00,527828.00,6127352.00,7002688.00,
1384,Toy Hsai-Shu,Kansas,6.15,Peanut Shells,172.00,1941.00,3558.00,333852.00,611976.00,5816842.20,6762670.20,
1388,Beatrice Lane,Nebraska,5.50,Burlap,280.00,2808.00,2277.00,786240.00,637560.00,7830900.00,9254700.00,
1389,Moses Rutland,D.C.,5.75,Burlap,182.00,2808.00,2277.00,511056.00,414414.00,5321452.50,6246922.50,
1390,Edwin Foster,Arizona,5.60,Peanut Shells,280.00,1941.00,3558.00,543480.00,996240.00,8622432.00,10162152.00,
1392,Lu Tuo-Wei,Colorado,2.90,Rose Petals,101.00,2055.00,1162.00,207555.00,117362.00,942259.30,1267176.30,
1395,Byron Blackburn,Washington,6.50,Rose Petals,283.00,2055.00,1162.00,581565.00,328846.00,5917671.50,6828082.50,
1396,Flora Adams,Nebraska,5.50,Peanut Shells,207.00,1941.00,3558.00,401787.00,736506.00,6260611.50,7398904.50,
1397,Almira Warrens,Wisconsin,5.00,Molten Lava,246.00,4682.00,4311.00,1151772.00,1060506.00,11061390.00,13273668.00,
1400,Si Na-Zhui,Idaho,6.00,Marmite,101.00,4020.00,1027.00,406020.00,103727.00,3058482.00,3568229.00,
1401,Shuie Yung-Jai,Rhode Island,7.00,Burlap,113.00,2808.00,2277.00,317304.00,257301.00,4022235.00,4596840.00,
1404,Solomon "Spanner" Sherman,Colorado,2.90,Peanut Shells,255.00,1941.00,3558.00,494955.00,907290.00,4066510.50,5468755.50,
1405,Ew Kwu-Gui,Minnesota,6.88,Rose Petals,148.00,2055.00,1162.00,304140.00,171976.00,3275678.08,3751794.08,
1406,Ew Kwu-Gui,Maryland,6.00,Dandelion Fluff,166.00,1773.00,2693.00,294318.00,447038.00,4448136.00,5189492.00,
