1889,Elias Cook,Delaware,0.00,Molten Lava,225.00,4682.00,4311.00,1053450.00,969975.00,0.00,2023425.00,
1890,Toy Hsai-Shu,Arizona,5.60,Burlap,204.00,2808.00,2277.00,572832.00,464508.00,5809104.00,6846444.00,
1901,Edwin Foster,North Dakota,5.00,Rose Petals,294.00,2055.00,1162.00,604170.00,341628.00,4728990.00,5674788.00,
1902,Ew Kwu-Gui,Nebraska,5.50,Burlap,131.00,2808.00,2277.00,367848.00,298287.00,3663742.50,4329877.50,
1904,Fa Jie-Woei,Utah,5.95,Burlap,196.00,2808.00,2277.00,550368.00,446292.00,5930127.00,6926787.00,
1908,Sai Fo-Dou,Wyoming,4.00,Marmite,261.00,4020.00,1027.00,1049220.00,268047.00,5269068.00,6586335.00,
