-------------------------------------------------------------------------------
Test set: com.sg.vendingmachinespringmvc.dao.VendingMachineItemDaoTest
-------------------------------------------------------------------------------
Tests run: 2, Failures: 0, Errors: 0, Skipped: 0, Time elapsed: 1.169 sec
