-------------------------------------------------------------------------------
Test set: com.sg.classroster.service.ClassRosterServiceLayerTest
-------------------------------------------------------------------------------
Tests run: 6, Failures: 0, Errors: 0, Skipped: 0, Time elapsed: 0.569 sec
