2017-02-27T15:26:47.133 : Student 9 CREATED.
2017-02-27T15:27:22.151 : Student 9 REMOVED.
2017-03-03T13:44:31.622 : Student 2 CREATED.
2017-03-03T13:44:49.530 : Student 42 CREATED.
2017-03-03T17:30:51.437 : createStudent: ID: 2 |Name: Derek Jeter |Cohort: NYY
2017-03-03T17:32:04.820 : createStudent: ID: 12345 |Name: Sally Jones |Cohort: .NET
2017-03-03T17:32:31.455 : removeStudent: 12345
2017-03-03T17:39:13.440 : createStudent: ID: 42 |Name: Mo Rivera |Cohort: NYY
2017-03-03T17:42:07.775 : removeStudent: 2
2017-03-04T12:09:27.158 : createStudent: ID: 2 |Name: Derek Jeter |Cohort: NYY
