-------------------------------------------------------------------------------
Test set: com.sg.sectionthreeunittests.SayHiTest
-------------------------------------------------------------------------------
Tests run: 3, Failures: 0, Errors: 0, Skipped: 0, Time elapsed: 0.104 sec
